[
    {
        "Training": [
            {
                "Clitici e Passivi": [
                    {
                        "Le avventure del cavallo Filippo": [
                            "Nel prato",
                            "Nel recinto",
                            "Nello stagno"
                        ]
                    },
                    {
                        "Le avventure della scimmia Sofia": [
                            "Sulla spiaggia",
                            "Nel bosco",
                            "Al circo"
                        ]
                    }
                ]
            },
            {
                "Wh-questions": [
                    "Livello 1",
                    "Livello 2",
                    "Livello 3",
                    "Livello 4"
                ]
            },
            {
                "Relative": [
                    {
                        "Gino il pompiere": [
                            "Episodio 1",
                            "Episodio 2"
                        ]
                    },
                    {
                        "Giulia la dottoressa": [
                            "Episodio 1",
                            "Episodio 2"
                        ]
                    }
                ]
            }
        ]
    },
    {
        "Assessment": [
            {
                "Wh-questions": [
                    "Pre-test",
                    "Post-test"
                ]
            },
            {
                "Relative": [
                    "Pre-test",
                    "Post-test"
                ]
            },
            {
                "Clitici": [
                    "Pre-test",
                    "Post-test"
                ]
            },
            {
                "Passivi": [
                    "Pre-test",
                    "Post-test"
                ]
            }
        ]
    }
]